\relax 
\providecommand\hyper@newdestlabel[2]{}
\providecommand\HyperFirstAtBeginDocument{\AtBeginDocument}
\HyperFirstAtBeginDocument{\ifx\hyper@anchor\@undefined
\global\let\oldcontentsline\contentsline
\gdef\contentsline#1#2#3#4{\oldcontentsline{#1}{#2}{#3}}
\global\let\oldnewlabel\newlabel
\gdef\newlabel#1#2{\newlabelxx{#1}#2}
\gdef\newlabelxx#1#2#3#4#5#6{\oldnewlabel{#1}{{#2}{#3}}}
\AtEndDocument{\ifx\hyper@anchor\@undefined
\let\contentsline\oldcontentsline
\let\newlabel\oldnewlabel
\fi}
\fi}
\global\let\hyper@last\relax 
\gdef\HyperFirstAtBeginDocument#1{#1}
\providecommand\HyField@AuxAddToFields[1]{}
\providecommand\HyField@AuxAddToCoFields[2]{}
\babel@aux{english}{}
\newlabel{index::doc}{{}{1}{}{section*.2}{}}
\@writefile{toc}{\contentsline {chapter}{\numberline {1}Data Model}{1}{chapter.1}}
\@writefile{lof}{\addvspace {10\p@ }}
\@writefile{lot}{\addvspace {10\p@ }}
\newlabel{source/datamodel:documentation-morphilo-project}{{1}{1}{Data Model}{chapter.1}{}}
\newlabel{source/datamodel::doc}{{1}{1}{Data Model}{chapter.1}{}}
\newlabel{source/datamodel:data-model}{{1}{1}{Data Model}{chapter.1}{}}
\@writefile{toc}{\contentsline {section}{\numberline {1.1}Conceptualization}{1}{section.1.1}}
\newlabel{source/datamodel:conceptualization}{{1.1}{1}{Conceptualization}{section.1.1}{}}
\@writefile{toc}{\contentsline {section}{\numberline {1.2}Implementation}{1}{section.1.2}}
\newlabel{source/datamodel:implementation}{{1.2}{1}{Implementation}{section.1.2}{}}
